{
  "$id": ".system-schemaTokenResp.json",
  "type": "object",
  "schema": "http://json-schema.org/draft-07/schema#",
  "translate": true,
  "dynamicfields": true,
  "properties": {
    "ph_request_type": {
      "type": "string",
      "description": "type of request (internal to adapter)",
      "default": "getToken",
      "enum": [
        "getToken"
      ],
      "external_name": "ph_request_type"
    },
    "token": {
      "type": "string",
      "description": "token returned by system",
      "parse": false,
      "encode": false,
      "placement": "BODY",
      "encrypt": {
        "type": "AES",
        "key": ""
      },
      "external_name": "authentication"
    }
  },
  "definitions": {}
}